function gujolato:reload
function gujolato:level_selection

execute as @e[tag=success] run function gujolato:success

execute at @e[tag=checkpoint] run function gujolato:old/checkpoint
execute at @e[tag=healthpoint] run function gujolato:old/healthpoint
execute at @e[tag=force_field] run function gujolato:old/force_field

function gujolato:convert