# Removing the old level
fill ~ ~ ~ ~31 ~31 ~31 air
kill @e[dx=31,dy=18,dz=31,tag=!level_creator,type=!player]
kill @e[dx=31,dy=18,dz=31,tag=!level_creator,type=!player]

say reloading

# Loading the new level
execute if entity @s[scores={level=-1..0}] run setblock ~ ~-1 ~ minecraft:structure_block{ignoreEntities:0b,mode:"LOAD",posY:1,sizeX:32,sizeY:18,sizeZ:32,name:"gujolato:level/start"}
execute if entity @s[scores={level=1}] run setblock ~ ~-1 ~ minecraft:structure_block{ignoreEntities:0b,mode:"LOAD",posY:1,sizeX:32,sizeY:18,sizeZ:32,name:"gujolato:level/1"}
execute if entity @s[scores={level=2}] run setblock ~ ~-1 ~ minecraft:structure_block{ignoreEntities:0b,mode:"LOAD",posY:1,sizeX:32,sizeY:18,sizeZ:32,name:"gujolato:level/2"}
execute if entity @s[scores={level=3}] run setblock ~ ~-1 ~ minecraft:structure_block{ignoreEntities:0b,mode:"LOAD",posY:1,sizeX:32,sizeY:18,sizeZ:32,name:"gujolato:level/3"}
execute if entity @s[scores={level=4}] run setblock ~ ~-1 ~ minecraft:structure_block{ignoreEntities:0b,mode:"LOAD",posY:1,sizeX:32,sizeY:18,sizeZ:32,name:"gujolato:level/4"}
execute if entity @s[scores={level=5}] run setblock ~ ~-1 ~ minecraft:structure_block{ignoreEntities:0b,mode:"LOAD",posY:1,sizeX:32,sizeY:18,sizeZ:32,name:"gujolato:level/5"}
execute if entity @s[scores={level=6}] run setblock ~ ~-1 ~ minecraft:structure_block{ignoreEntities:0b,mode:"LOAD",posY:1,sizeX:32,sizeY:18,sizeZ:32,name:"gujolato:level/6"}
execute if entity @s[scores={level=7}] run setblock ~ ~-1 ~ minecraft:structure_block{ignoreEntities:0b,mode:"LOAD",posY:1,sizeX:32,sizeY:18,sizeZ:32,name:"gujolato:level/7"}
execute if entity @s[scores={level=8}] run setblock ~ ~-1 ~ minecraft:structure_block{ignoreEntities:0b,mode:"LOAD",posY:1,sizeX:32,sizeY:18,sizeZ:32,name:"gujolato:level/8"}
execute if entity @s[scores={level=9}] run setblock ~ ~-1 ~ minecraft:structure_block{ignoreEntities:0b,mode:"LOAD",posY:1,sizeX:32,sizeY:18,sizeZ:32,name:"gujolato:level/9"}
execute if entity @s[scores={level=10}] run setblock ~ ~-1 ~ minecraft:structure_block{ignoreEntities:0b,mode:"LOAD",posY:1,sizeX:32,sizeY:18,sizeZ:32,name:"gujolato:level/10"}
execute if entity @s[scores={level=11}] run setblock ~ ~-1 ~ minecraft:structure_block{ignoreEntities:0b,mode:"LOAD",posY:1,sizeX:32,sizeY:18,sizeZ:32,name:"gujolato:level/11"}
execute if entity @s[scores={level=12}] run setblock ~ ~-1 ~ minecraft:structure_block{ignoreEntities:0b,mode:"LOAD",posY:1,sizeX:32,sizeY:18,sizeZ:32,name:"gujolato:level/12"}
execute if entity @s[scores={level=13}] run setblock ~ ~-1 ~ minecraft:structure_block{ignoreEntities:0b,mode:"LOAD",posY:1,sizeX:32,sizeY:18,sizeZ:32,name:"gujolato:level/13"}
execute if entity @s[scores={level=14}] run setblock ~ ~-1 ~ minecraft:structure_block{ignoreEntities:0b,mode:"LOAD",posY:1,sizeX:32,sizeY:18,sizeZ:32,name:"gujolato:level/14"}
execute if entity @s[scores={level=15}] run setblock ~ ~-1 ~ minecraft:structure_block{ignoreEntities:0b,mode:"LOAD",posY:1,sizeX:32,sizeY:18,sizeZ:32,name:"gujolato:level/15"}
execute if entity @s[scores={level=16}] run setblock ~ ~-1 ~ minecraft:structure_block{ignoreEntities:0b,mode:"LOAD",posY:1,sizeX:32,sizeY:18,sizeZ:32,name:"gujolato:level/16"}
execute if entity @s[scores={level=17}] run setblock ~ ~-1 ~ minecraft:structure_block{ignoreEntities:0b,mode:"LOAD",posY:1,sizeX:32,sizeY:18,sizeZ:32,name:"gujolato:level/17"}
execute if entity @s[scores={level=18}] run setblock ~ ~-1 ~ minecraft:structure_block{ignoreEntities:0b,mode:"LOAD",posY:1,sizeX:32,sizeY:18,sizeZ:32,name:"gujolato:level/18"}
execute if entity @s[scores={level=19}] run setblock ~ ~-1 ~ minecraft:structure_block{ignoreEntities:0b,mode:"LOAD",posY:1,sizeX:32,sizeY:18,sizeZ:32,name:"gujolato:level/19"}
execute if entity @s[scores={level=20}] run setblock ~ ~-1 ~ minecraft:structure_block{ignoreEntities:0b,mode:"LOAD",posY:1,sizeX:32,sizeY:18,sizeZ:32,name:"gujolato:level/20"}
execute if entity @s[scores={level=21}] run setblock ~ ~-1 ~ minecraft:structure_block{ignoreEntities:0b,mode:"LOAD",posY:1,sizeX:32,sizeY:18,sizeZ:32,name:"gujolato:level/21"}
execute if entity @s[scores={level=22}] run setblock ~ ~-1 ~ minecraft:structure_block{ignoreEntities:0b,mode:"LOAD",posY:1,sizeX:32,sizeY:18,sizeZ:32,name:"gujolato:level/l22"}
execute if entity @s[scores={level=23}] run setblock ~ ~-1 ~ minecraft:structure_block{ignoreEntities:0b,mode:"LOAD",posY:1,sizeX:32,sizeY:18,sizeZ:32,name:"gujolato:level/23"}
execute if entity @s[scores={level=24}] run setblock ~ ~-1 ~ minecraft:structure_block{ignoreEntities:0b,mode:"LOAD",posY:1,sizeX:32,sizeY:18,sizeZ:32,name:"gujolato:level/24"}
execute if entity @s[scores={level=25}] run setblock ~ ~-1 ~ minecraft:structure_block{ignoreEntities:0b,mode:"LOAD",posY:1,sizeX:32,sizeY:18,sizeZ:32,name:"gujolato:level/25"}
execute if entity @s[scores={level=26}] run setblock ~ ~-1 ~ minecraft:structure_block{ignoreEntities:0b,mode:"LOAD",posY:1,sizeX:32,sizeY:18,sizeZ:32,name:"gujolato:level/26"}
execute if entity @s[scores={level=27}] run setblock ~ ~-1 ~ minecraft:structure_block{ignoreEntities:0b,mode:"LOAD",posY:1,sizeX:32,sizeY:18,sizeZ:32,name:"gujolato:level/27"}
execute if entity @s[scores={level=28}] run setblock ~ ~-1 ~ minecraft:structure_block{ignoreEntities:0b,mode:"LOAD",posY:1,sizeX:32,sizeY:18,sizeZ:32,name:"gujolato:level/28"}
execute if entity @s[scores={level=29}] run setblock ~ ~-1 ~ minecraft:structure_block{ignoreEntities:0b,mode:"LOAD",posY:1,sizeX:32,sizeY:18,sizeZ:32,name:"gujolato:level/29"}

# Activating the structure block
setblock ~ ~-2 ~ minecraft:redstone_block destroy

# LAG!!!

# tp
execute at @e[tag=level_creator,team=aqua] run spreadplayers ~1 ~1 1 1 false @a[tag=reloading,team=aqua]
execute at @e[tag=level_creator,team=black] run spreadplayers ~1 ~1 1 1 false @a[tag=reloading,team=black]
execute at @e[tag=level_creator,team=blue] run spreadplayers ~1 ~1 1 1 false @a[tag=reloading,team=blue]
execute at @e[tag=level_creator,team=cyan] run spreadplayers ~1 ~1 1 1 false @a[tag=reloading,team=cyan]
execute at @e[tag=level_creator,team=dark_blue] run spreadplayers ~1 ~1 1 1 false @a[tag=reloading,team=dark_blue]
execute at @e[tag=level_creator,team=gray] run spreadplayers ~1 ~1 1 1 false @a[tag=reloading,team=gray]
execute at @e[tag=level_creator,team=green] run spreadplayers ~1 ~1 1 1 false @a[tag=reloading,team=green]
execute at @e[tag=level_creator,team=purple] run spreadplayers ~1 ~1 1 1 false @a[tag=reloading,team=purple]
execute at @e[tag=level_creator,team=dark_red] run spreadplayers ~1 ~1 1 1 false @a[tag=reloading,team=dark_red]
execute at @e[tag=level_creator,team=gold] run spreadplayers ~1 ~1 1 1 false @a[tag=reloading,team=gold]
execute at @e[tag=level_creator,team=light_gray] run spreadplayers ~1 ~1 1 1 false @a[tag=reloading,team=light_gray]
execute at @e[tag=level_creator,team=lime] run spreadplayers ~1 ~1 1 1 false @a[tag=reloading,team=lime]
execute at @e[tag=level_creator,team=magenta] run spreadplayers ~1 ~1 1 1 false @a[tag=reloading,team=magenta]
execute at @e[tag=level_creator,team=red] run spreadplayers ~1 ~1 1 1 false @a[tag=reloading,team=red]
execute at @e[tag=level_creator,team=white] run spreadplayers ~1 ~1 1 1 false @a[tag=reloading,team=white]
execute at @e[tag=level_creator,team=yellow] run spreadplayers ~1 ~1 1 1 false @a[tag=reloading,team=yellow]

#fill ~ ~-2 ~ ~ ~-1 ~ air

tag @s remove reloading